{
  "productTypes": [
    {
      "name": "locks",
      "icon": "Keys",
      "title": "Locks, keys & levers",
      "description": "Cylindrical, mortise and tubular locks to deadbolts, levers, knobs and master key systems."
    },
    {
      "name": "portable",
      "icon": "Bike",
      "title": "Portable & ouf of home",
      "description": "Bicycle, action sport and portable locks, lights, and security."
    },
    {
      "name": "electronic",
      "icon": "Phone",
      "title": "Electrical access & monitoring",
      "description": "Electronic & connected locks to access management cards, keypads, credentials, readers, software, and services."
    },
    {
      "name": "doors",
      "icon": "Door",
      "title": "Exits, openers, closer & doors",
      "description": " Latches, door openers & closers, doors, frames and exit devices."
    },
    {
      "name": "other",
      "icon": "Hinge",
      "title": "Other door hardware & accessories",
      "description": "Weather stripping and threshold solutions to hinges, lites & louvers."
    },
    {
      "name": "accessibility",
      "icon": "Cross",
      "title": "Quite solutions, accessibility & wellness",
      "description": "Innovative antimicrobial design and operating mechanisms that aid safety, health, and comfort."
    }
  ]
}